#1 GET https://api.practicesoftwaretesting.com/users
→ {"accept":"application/json","authorization":"«redacted»"}
← 403 (395ms) {"access-control-allow-origin":"*","access-control-expose-headers":"Content-Disposition","cache-control":"no-cache, private","connection":"Upgrade, close","content-type":"application/json","date":"Sun, 05 Jul 2026 18:27:05 GMT","server":"Apache/2.4.52 (Ubuntu)","transfer-encoding":"chunked","upgrade":"h2","vary":"Authorization"}
{
  "message": "Forbidden"
}

────────────────────────────────────────────────────────────────────────

#2 GET https://api.practicesoftwaretesting.com/users
→ {"accept":"application/json","authorization":"«redacted»"}
← 200 (435ms) {"access-control-allow-origin":"*","access-control-expose-headers":"Content-Disposition","cache-control":"no-cache, private","connection":"Upgrade, close","content-encoding":"gzip","content-length":"1086","content-type":"application/json","date":"Sun, 05 Jul 2026 18:27:05 GMT","server":"Apache/2.4.52 (Ubuntu)","upgrade":"h2","vary":"Authorization,Accept-Encoding"}
{
  "current_page": 1,
  "data": [
    {
      "id": "01KWSQ0D18GGC2ST5CH53YKSGP",
      "provider": null,
      "first_name": "Jane",
      "last_name": "Doe",
      "phone": null,
      "dob": "1980-02-02",
      "email": "customer@practicesoftwaretesting.com",
      "totp_enabled": false,
      "created_at": "2026-07-05 18:00:19",
      "address": {
        "street": "Test street 98",
        "house_number": null,
        "city": "Vienna",
        "state": null,
        "country": "Austria",
        "postal_code": null
      },
      "enabled": true,
      "role": "user",
      "failed_login_attempts": 3
    },
    {
      "id": "01KWSQ0D3Q1S5W9JP16WFPF6N1",
      "provider": null,
      "first_name": "Jack",
      "last_name": "Howe",
      "phone": null,
      "dob": "1980-03-03",
      "email": "customer2@practicesoftwaretesting.com",
      "totp_enabled": false,
      "created_at": "2026-07-05 18:00:19",
      "address": {
        "street": "Test street 654",
        "house_number": null,
        "city": "Frankfurt",
        "state": null,
        "country": "Germany",
        "postal_code": null
      },
      "enabled": true,
      "role": "user",
      "failed_login_attempts": 0
    },
    {
      "id": "01KWSQ0D5XNEYJMGJP77SV7Y38",
      "provider": null,
      "first_name": "Bob",
      "last_name": "Smith",
      "phone": null,
      "dob": "1985-05-05",
      "email": "customer3@practicesoftwaretesting.com",
      "totp_enabled": false,
      "created_at": "2026-07-05 18:00:19",
      "address": {
        "street": "Test street 200",
        "house_number": null,
        "city": "London",
        "state": null,
        "country": "United Kingdom",
        "postal_code": null
      },
      "enabled": true,
      "role": "user",
      "failed_login_attempts": 0
    },
    {
      "id": "01kwsq0eadn1m5acs8wc1sjv14",
      "provider": null,
      "first_name": "Alice",
      "last_name": "Test",
      "phone": null,
      "dob": "1995-05-15",
      "email": "chpw-e72b65ab@e2e.example",
      "totp_enabled": false,
      "created_at": "2026-07-05 18:00:20",
      "address": {
        "street": "Regent Street",
        "house_number": null,
        "city": "London",
        "state": null,
        "country": "GB",
        "postal_code": "W1B 5TH"
      },
      "enabled": true,
      "role": "user",
      "failed_login_attempts": 0
    },
    {
      "id": "01kwsq0ggta7vm9epjd6r9k8sm",
      "provider": null,
      "first_name": "PyTest",
      "last_name": "Runner",
      "phone": null,
      "dob": "1990-01-01",
      "email": "test-f8383e9e@e2e.example",
      "totp_enabled": false,
      "created_at": "2026-07-05 18:00:22",
      "address": {
        "street": "Teststr.",
        "house_number": null,
        "city": "Berlin",
        "state": null,
        "country": "DE",
        "postal_code": "10115"
      },
      "enabled": true,
      "role": "user",
      "failed_login_attempts": 0
    },
    {
      "id": "01kwsq0jvr4x695ays2v59zctk",
      "provider": null,
      "first_name": "PyTest",
      "last_name": "Runner",
      "phone": null,
      "dob": "1990-01-01",
      "email": "test-07fccdf0@e2e.example",
      "totp_enabled": false,
      "created_at": "2026-07-05 18:00:25",
      "address": {
        "street": "Teststr.",
        "house_number": null,
        "city": "Berlin",
        "state": null,
        "country": "DE",
        "postal_code": "10115"
      },
      "enabled": true,
      "role": "user",
      "failed_login_attempts": 0
    },
    {
      "id": "01kwsq0mvp91y0spyv151sz46h",
      "provider": null,
      "first_name": "Alice",
      "last_name": "Test",
      "phone": null,
      "dob": "1995-05-15",
      "email": "usera-9b2d4ae6@e2e.example",
      "totp_enabled": false,
      "created_at": "2026-07-05 18:00:27",
      "address": {
        "street": "Regent Street",
        "house_number": null,
        "city": "London",
        "state": null,
        "country": "GB",
        "postal_code": "W1B 5TH"
      },
      "enabled": true,
      "role": "user",
      "failed_login_attempts": 0
    },
    {
      "id": "01kwsq0p5ss1s77912n422y8zy",
      "provider": null,
      "first_name": "Alice",
      "last_name": "Test",
      "phone": null,
      "dob": "1995-05-15",
      "email": "userb-ca4b651a@e2e.example",
      "totp_enabled": false,
      "created_at": "2026-07-05 18:00:28",
      "address": {
        "street": "Regent Street",
        "house_number": null,
        "city": "London",
        "state": null,
        "country": "GB",
        "postal_code": "W1B 5TH"
      },
      "enabled": true,
      "role": "user",
      "failed_login_attempts": 0
    },
    {
      "id": "01kwsq0pf0aarzcv8xdzhhd5wq",
      "provider": null,
      "first_name": "Normal",
      "last_name": "User",
      "phone": null,
      "dob": "1990-01-01",
      "email": "normal-3d09d49f@e2e.example",
      "totp_enabled": false,
      "created_at": "2026-07-05 18:00:28",
      "address": {
        "street": "X",
        "house_number": null,
        "city": "Y",
        "state": null,
        "country": "DE",
        "postal_code": "10115"
      },
      "enabled": true,
      "role": "user",
      "failed_login_attempts": 0
    },
    {
      "id": "01kwsq0r31ffek345nq8c52hhb",
      "provider": null,
      "first_name": "Alice",
      "last_name": "Test",
      "phone": null,
      "dob": "1995-05-15",
      "email": "usera-0ae10d8c@e2e.example",
      "totp_enabled": false,
      "created_at": "2026-07-05 18:00:30",
      "address": {
        "street": "Regent Street",
        "house_number": null,
        "city": "London",
        "state": null,
        "country": "GB",
        "postal_code": "W1B 5TH"
      },
      "enabled": true,
      "role": "user",
      "failed_login_attempts": 0
    },
    {
      "id": "01kwsq0sc1eb5gzwxqd2h57b30",
      "provider": null,
      "first_name": "Alice",
      "last_name": "Test",
      "phone": null,
      "dob": "1995-05-15",
      "email": "userb-741d29dc@e2e.example",
      "totp_enabled": false,
      "created_at": "2026-07-05 18:00:31",
      "address": {
        "street": "Regent Street",
        "house_number": null,
        "city": "London",
        "state": null,
        "country": "GB",
        "postal_code": "W1B 5TH"
      },
      "enabled": true,
      "role": "user",
      "failed_login_attempts": 0
    },
    {
      "id": "01kwsq0v1aw25z6aq45dbdfzd0",
      "provider": null,
      "first_name": "PyTest",
      "last_name": "Runner",
      "phone": null,
      "dob": "1990-01-01",
      "email": "test-4625f708@e2e.example",
      "totp_enabled": false,
      "created_at": "2026-07-05 18:00:33",
      "address": {
        "street": "Teststr.",
        "house_number": null,
        "city": "Berlin",
        "state": null,
        "country": "DE",
        "postal_code": "10115"
      },
      "enabled": true,
      "role": "user",
      "failed_login_attempts": 0
    },
    {
      "id": "01kwsq0vzdjxqqn4d23ecgameb",
      "provider": null,
      "first_name": "Alice",
      "last_name": "Test",
      "phone": null,
      "dob": "1995-05-15",
      "email": "delme2-457bcda2@e2e.example",
      "totp_enabled": false,
      "created_at": "2026-07-05 18:00:34",
      "address": {
        "street": "Regent Street",
        "house_number": null,
        "city": "London",
        "state": null,
        "country": "GB",
        "postal_code": "W1B 5TH"
      },
      "enabled": true,
      "role": "user",
      "failed_login_attempts": 0
    },
    {
      "id": "01kwsq0y2r5f4j4w98jaz83gdd",
      "provider": null,
      "first_name": "PyTest",
      "last_name": "Runner",
      "phone": null,
      "dob": "1990-01-01",
      "email": "test-22454a76@e2e.example",
      "totp_enabled": false,
      "created_at": "2026-07-05 18:00:36",
      "address": {
        "street": "Teststr.",
        "house_number": null,
        "city": "Berlin",
        "state": null,
        "country": "DE",
        "postal_code": "10115"
      },
      "enabled": true,
      "role": "user",
      "failed_login_attempts": 0
    },
    {
      "id": "01kwsq0zah528jzdvs2bezjahr",
      "provider": null,
      "first_name": "Dwight",
      "last_name": "Larkin",
      "phone": "3867046464",
      "dob": "1972-03-18",
      "email": "tqp.mr83k1q2.27245.1.fmpfalfy@example.com",
      "totp_enabled": false,
      "created_at": "2026-07-05 18:00:37",
      "address": {
        "street": "518 Emmie Stravenue",
        "house_number": "828",
        "city": "Port Sterlingberg",
        "state": "North Carolina",
        "country": "US",
        "postal_code": "80501"
      },
      "enabled": true,
      "role": "user",
      "failed_login_attempts": 0
    }
  ],
  "from": 1,
  "last_page": 6,
  "per_page": 15,
  "to": 15,
  "total": 87
}