#1 GET https://api.practicesoftwaretesting.com/products?sort=name%2Cdesc
→ {"accept":"application/json"}
← 200 (294ms) {"access-control-allow-origin":"*","access-control-expose-headers":"Content-Disposition","cache-control":"max-age=120, public","connection":"Upgrade, close","content-encoding":"gzip","content-length":"4877","content-type":"application/json","date":"Sun, 05 Jul 2026 18:08:14 GMT","etag":"\"b7cc6110ff29776b4decdab600649e00-gzip\"","server":"Apache/2.4.52 (Ubuntu)","upgrade":"h2","vary":"Accept-Encoding"}
{
  "current_page": 1,
  "data": [
    {
      "id": "01KWSQ0DCK73CZTP2SKYZB37T4",
      "name": "Workbench with Drawers",
      "description": "Heavy-duty workbench combining a solid hardwood laminate top with an integrated steel frame that supports working loads up to 500kg for the toughest assembly, fabrication, and repair tasks. Four full-extension lockable drawers on ball-bearing slides provide convenient storage for hand tools, fasteners, measuring instruments, and project components within easy arms reach. The 1500x600mm work surface offers generous space for clamping, assembly, soldering, and detailed work, while the hardwood top resists dents, scratches, and chemical spills better than particleboard alternatives. A lower shelf provides additional storage for power tools, parts bins, and heavy equipment. Adjustable leveling feet compensate for uneven workshop floors, ensuring a perfectly stable, wobble-free work platform. The ideal centerpiece for professional workshops, maker spaces, and serious home garages where a reliable work surface is essential.",
      "price": 178.2,
      "is_location_offer": false,
      "is_rental": false,
      "co2_rating": "B",
      "in_stock": true,
      "is_eco_friendly": true,
      "product_image": {
        "id": "01KWSQ0D9G129Q4Q5SGCCKY7VT",
        "by_name": "Matteo Minoglio",
        "by_url": "https://unsplash.com/@ilmino",
        "source_name": "Unsplash",
        "source_url": "https://unsplash.com/photos/opened-brown-wooden-drawers-m8-NX7WxbpM",
        "file_name": "workbench02.avif",
        "title": "Workbench with Drawers"
      },
      "category": {
        "id": "01KWSQ0D93MCWB5Z9GDEPGVJDJ",
        "name": "Workbench",
        "slug": "workbench"
      },
      "brand": {
        "id": "01KWSQ0CYMA7FSXDT8HEQPNPH0",
        "name": "ForgeFlex Tools"
      }
    },
    {
      "id": "01KWSQ0DCN5227KE4AWAVG8T4M",
      "name": "Wooden Workbench",
      "description": "Traditional solid European beech wood workbench built with time-tested mortise-and-tenon joinery and hardwood dowel pins for exceptional rigidity and a working lifetime measured in decades rather than years. The 1400x500mm work surface is planed smooth, sanded to a fine finish, and treated with penetrating linseed oil to resist moisture, glue, and common workshop stains without building up a slippery film. A built-in tool well running the full length of the back edge keeps chisels, pencils, marking gauges, and small parts from rolling off the work surface during use. The substantial underframe includes a full-width lower shelf for storing planes, saws, and workshop accessories within easy reach. Rated for a 300kg distributed load capacity, this bench handles heavy timber, metalwork clamping, and power tool operations without flexing. The timeless design and natural beauty of solid beech make this workbench both a serious working tool and the proud centerpiece of any craft workshop.",
      "price": 172.52,
      "is_location_offer": false,
      "is_rental": false,
      "co2_rating": "B",
      "in_stock": true,
      "is_eco_friendly": true,
      "product_image": {
        "id": "01KWSQ0D9G129Q4Q5SGCCKY7VV",
        "by_name": "Brett Garwood",
        "by_url": "https://unsplash.com/@brettgarwood",
        "source_name": "Unsplash",
        "source_url": "https://unsplash.com/photos/brown-wooden-stick-on-brown-wooden-table-asZVvgMGshc",
        "file_name": "workbench01.avif",
        "title": "Wooden Workbench"
      },
      "category": {
        "id": "01KWSQ0D93MCWB5Z9GDEPGVJDJ",
        "name": "Workbench",
        "slug": "workbench"
      },
      "brand": {
        "id": "01KWSQ0CYMA7FSXDT8HEQPNPH1",
        "name": "MightyCraft Hardware"
      }
    },
    {
      "id": "01KWSQ0DB0002K9352WHEMSWWA",
      "name": "Wood Saw",
      "description": "Traditional hand saw crafted with a high carbon steel blade featuring 7 teeth per inch for efficient crosscutting and ripping of timber, plywood, and composite boards. The 500mm blade length handles standard dimensional lumber, sheet goods, and tree branches with smooth, clean cuts that require minimal sanding afterward. Each tooth is precision-set and hardened to stay sharp through hundreds of cuts in both softwood and hardwood species. A comfortable contoured wooden handle provides a secure three-finger grip and natural wrist alignment that reduces fatigue during extended cutting sessions. The taper-ground blade is thinner at the back than at the teeth, reducing friction and binding during deep cuts. Essential for carpenters, woodworkers, and gardeners who appreciate the precision, quiet operation, and portability of a quality hand saw.",
      "price": 12.18,
      "is_location_offer": false,
      "is_rental": false,
      "co2_rating": "B",
      "in_stock": true,
      "is_eco_friendly": true,
      "product_image": {
        "id": "01KWSQ0D9G129Q4Q5SGCCKY7TM",
        "by_name": "Jonathan Cooper",
        "by_url": "https://unsplash.com/@theshuttervision",
        "source_name": "Unsplash",
        "source_url": "https://unsplash.com/photos/fTpzd-PjyDQ",
        "file_name": "saw01.avif",
        "title": "Wood Saw"
      },
      "category": {
        "id": "01KWSQ0D93MCWB5Z9GDEPGVJD6",
        "name": "Hand Saw",
        "slug": "hand-saw"
      },
      "brand": {
        "id": "01KWSQ0CYMA7FSXDT8HEQPNPH0",
        "name": "ForgeFlex Tools"
      }
    },
    {
      "id": "01KWSQ0DBCMA2QEYMVHC6C5KXR",
      "name": "Wood Carving Chisels",
      "description": "Specialized wood carving chisels with high carbon steel blades honed to an exceptionally keen edge for detailed decorative and sculptural work in all timber species. Hand-turned ash wood handles are ergonomically shaped with a gentle palm swell that provides comfort and control during extended carving sessions without causing blisters or hand cramps. The set of four essential profiles includes a straight chisel, skew chisel, shallow gouge, and V-parting tool, covering the most frequently used carving strokes from rough shaping to fine finishing. Each blade is tang-mounted into the handle with a brass ferrule that prevents the wood from splitting under mallet impact. The blades are supplied with a factory edge suitable for immediate use, though experienced carvers may wish to refine the bevel angle to suit their personal technique. Ideal for furniture makers, sign carvers, sculptors, and woodworking hobbyists pursuing the timeless art of hand carving.",
      "price": 45.23,
      "is_location_offer": true,
      "is_rental": false,
      "co2_rating": "D",
      "in_stock": true,
      "is_eco_friendly": false,
      "product_image": {
        "id": "01KWSQ0D9G129Q4Q5SGCCKY7V6",
        "by_name": "Octavian Iordache",
        "by_url": "https://unsplash.com/@octavianiordache",
        "source_name": "Unsplash",
        "source_url": "https://unsplash.com/photos/brown-wooden-wall-mounted-rack-FgP27oU8LWw",
        "file_name": "chisels02.avif",
        "title": "Chisel"
      },
      "category": {
        "id": "01KWSQ0D93MCWB5Z9GDEPGVJDA",
        "name": "Chisels",
        "slug": "chisels"
      },
      "brand": {
        "id": "01KWSQ0CYMA7FSXDT8HEQPNPH0",
        "name": "ForgeFlex Tools"
      }
    },
    {
      "id": "01KWSQ0DCDF1HKSYQJC4N1RS4E",
      "name": "Washers",
      "description": "Assorted pack of 150 zinc-plated steel flat washers in popular metric sizes ranging from M4 to M10, covering the most commonly needed sizes for workshop, garage, and job site fastener work. These washers distribute the clamping force of bolts and nuts over a larger surface area, preventing damage to soft materials like wood, plastic, and painted or powder-coated metal surfaces. The smooth, burr-free finish on both faces ensures a flat, stable seating surface that maximizes friction and prevents fastener loosening under vibration. Each washer is stamped from precision-rolled steel strip to consistent thickness tolerances, ensuring predictable bolt stretch and joint behavior across multiple fastening points. The zinc plating provides reliable corrosion protection for indoor use and sheltered outdoor applications. An indispensable consumable for any workshop, garage, or maintenance department handling regular fastener assembly and repair work.",
      "price": 3.55,
      "is_location_offer": false,
      "is_rental": false,
      "co2_rating": "C",
      "in_stock": true,
      "is_eco_friendly": false,
      "product_image": {
        "id": "01KWSQ0D9G129Q4Q5SGCCKY7VP",
        "by_name": "Robert Ruggiero",
        "by_url": "https://unsplash.com/@robert2301",
        "source_name": "Unsplash",
        "source_url": "https://unsplash.com/photos/a-pile-of-different-colored-washers-sitting-on-top-of-a-table-oY6774he6GQ",
        "file_name": "fasteners06.avif",
        "title": "Washers"
      },
      "category": {
        "id": "01KWSQ0D93MCWB5Z9GDEPGVJDM",
        "name": "Fasteners",
        "slug": "fasteners"
      },
      "brand": {
        "id": "01KWSQ0CYMA7FSXDT8HEQPNPH0",
        "name": "ForgeFlex Tools"
      }
    },
    {
      "id": "01kwsqeg64nd21v64pk4g4fzxk",
      "name": "Updated Product",
      "description": "Updated desc",
      "price": 49.99,
      "is_location_offer": true,
      "is_rental": false,
      "co2_rating": null,
      "in_stock": false,
      "is_eco_friendly": false,
      "product_image": {
        "id": "01KWSQ0D9G129Q4Q5SGCCKY7T8",
        "by_name": "Helinton Fantin",
        "by_url": "https://unsplash.com/@fantin",
        "source_name": "Unsplash",
        "source_url": "https://unsplash.com/photos/W8BNwvOvW4M",
        "file_name": "pliers01.avif",
        "title": "Combination pliers"
      },
      "category": {
        "id": "01KWSQ0D93MCWB5Z9GDEPGVJD9",
        "name": "Pliers",
        "slug": "pliers"
      },
      "brand": {
        "id": "01KWSQ0CYMA7FSXDT8HEQPNPH0",
        "name": "ForgeFlex Tools"
      }
    },
    {
      "id": "01KWSQ0DCHZZA3X2X4F02VZH2Z",
      "name": "Tool Cabinet",
      "description": "Versatile wall-mounted or freestanding tool cabinet built from heavy-gauge welded steel with three spacious drawers and an upper compartment for organized, secure tool storage. The textured powder-coated exterior resists workshop chemicals, oil stains, and everyday bumps and scrapes, maintaining a professional appearance through years of hard use. A keyed cylinder lock secures the entire cabinet, keeping expensive hand tools and precision instruments safe from unauthorized access in shared workshops. Adjustable drawer dividers allow you to customize compartment sizes for different tool collections, from small precision instruments to bulky power tool accessories. Pre-drilled mounting holes on the back panel allow quick, secure wall attachment using standard lag screws or wall anchors. A compact 600x400x800mm footprint makes this cabinet ideal for smaller workshops, garage walls, service vans, and mobile repair stations.",
      "price": 86.71,
      "is_location_offer": false,
      "is_rental": false,
      "co2_rating": "B",
      "in_stock": true,
      "is_eco_friendly": true,
      "product_image": {
        "id": "01KWSQ0D9G129Q4Q5SGCCKY7VS",
        "by_name": "Georg Eiermann",
        "by_url": "https://unsplash.com/@georgeiermann",
        "source_name": "Unsplash",
        "source_url": "https://unsplash.com/photos/a-group-of-wooden-objects-uXWbowHdJqk",
        "file_name": "toolcabinet01.avif",
        "title": "Tool Cabinet"
      },
      "category": {
        "id": "01KWSQ0D93MCWB5Z9GDEPGVJDH",
        "name": "Storage Solutions",
        "slug": "storage solutions"
      },
      "brand": {
        "id": "01KWSQ0CYMA7FSXDT8HEQPNPH0",
        "name": "ForgeFlex Tools"
      }
    },
    {
      "id": "01KWSQ0DAR29ZP0AMH6CGX57T5",
      "name": "Thor Hammer",
      "description": "The legendary Thor Hammer combines premium craftsmanship with raw striking power in a tool that is truly built to last generations. Forged from Uru metal with a hand-wrapped leather grip, this extraordinary 5kg masterpiece delivers unmatched impact force for the most demanding demolition, forging, and heavy construction tasks. The perfectly balanced oversized head ensures every swing transfers maximum energy to the target, while the enlarged striking face covers more surface area than any conventional hammer. Despite its impressive mass, the ergonomic handle design and precise weight distribution allow for surprisingly controlled, accurate swings. This is not merely a tool but a statement piece for those who accept nothing less than the absolute best in their workshop. Comes with a lifetime warranty because true legends never fade. Please note: only one Thor Hammer is permitted per customer.",
      "price": 11.14,
      "is_location_offer": false,
      "is_rental": false,
      "co2_rating": "D",
      "in_stock": true,
      "is_eco_friendly": false,
      "product_image": {
        "id": "01KWSQ0D9G129Q4Q5SGCCKY7TG",
        "by_name": "ANIRUDH",
        "by_url": "https://unsplash.com/@lanirudhreddy",
        "source_name": "Unsplash",
        "source_url": "https://unsplash.com/photos/3esjG-nlgyk",
        "file_name": "hammer04.avif",
        "title": "Hammer"
      },
      "category": {
        "id": "01KWSQ0D93MCWB5Z9GDEPGVJD5",
        "name": "Hammer",
        "slug": "hammer"
      },
      "brand": {
        "id": "01KWSQ0CYMA7FSXDT8HEQPNPH0",
        "name": "ForgeFlex Tools"
      }
    },
    {
      "id": "01KWSQ0DBG8FRAR3Z8SVYQ7YWX",
      "name": "Tape Measure 7.5m",
      "description": "Professional-grade 7.5-meter retractable tape measure built for daily use on construction sites, in workshops, and on renovation projects. The 25mm wide nylon-coated steel blade resists bending, kinking, and snapping at full extension, while the coating protects against abrasion and moisture that would corrode an unprotected blade. An impressive standout of over 3 meters allows solo measurements across door openings, window frames, and room widths without the blade folding. The heavy-duty rubber-armored housing absorbs drops from ladder height onto concrete floors, while the integrated belt clip and wrist lanyard keep the tape always within reach. A smooth, controllable retraction mechanism and positive blade lock hold your measurement securely in place. Dual metric and imperial markings printed in high-contrast colors ensure compatibility with any project specification and easy reading in all lighting conditions.",
      "price": 7.23,
      "is_location_offer": false,
      "is_rental": false,
      "co2_rating": "C",
      "in_stock": true,
      "is_eco_friendly": false,
      "product_image": {
        "id": "01KWSQ0D9G129Q4Q5SGCCKY7V8",
        "by_name": "Brett Jordan",
        "by_url": "https://unsplash.com/@brett_jordan",
        "source_name": "Unsplash",
        "source_url": "https://unsplash.com/photos/blue-and-yellow-measuring-tape-faOPbPmznfQ",
        "file_name": "measure01.avif",
        "title": "Tape Measure 7.5m"
      },
      "category": {
        "id": "01KWSQ0D93MCWB5Z9GDEPGVJDB",
        "name": "Measures",
        "slug": "measures"
      },
      "brand": {
        "id": "01KWSQ0CYMA7FSXDT8HEQPNPH0",
        "name": "ForgeFlex Tools"
      }
    }
  ],
  "from": 1,
  "last_page": 7,
  "per_page": 9,
  "to": 9,
  "total": 59
}