[
  {
    "seq": 1,
    "method": "GET",
    "url": "https://api.practicesoftwaretesting.com/products?sort=price%2Casc",
    "status": 200,
    "durationMs": 486,
    "requestHeaders": {
      "accept": "application/json"
    },
    "requestBody": null,
    "responseHeaders": {
      "access-control-allow-origin": "*",
      "access-control-expose-headers": "Content-Disposition",
      "cache-control": "max-age=120, public",
      "connection": "Upgrade, close",
      "content-encoding": "gzip",
      "content-length": "4818",
      "content-type": "application/json",
      "date": "Sun, 05 Jul 2026 18:03:28 GMT",
      "etag": "\"790701c1c94f212d078b11101b94ad4e-gzip\"",
      "server": "Apache/2.4.52 (Ubuntu)",
      "upgrade": "h2",
      "vary": "Accept-Encoding"
    },
    "responseBody": {
      "current_page": 1,
      "data": [
        {
          "id": "01KWSQ0DCDF1HKSYQJC4N1RS4E",
          "name": "Washers",
          "description": "Assorted pack of 150 zinc-plated steel flat washers in popular metric sizes ranging from M4 to M10, covering the most commonly needed sizes for workshop, garage, and job site fastener work. These washers distribute the clamping force of bolts and nuts over a larger surface area, preventing damage to soft materials like wood, plastic, and painted or powder-coated metal surfaces. The smooth, burr-free finish on both faces ensures a flat, stable seating surface that maximizes friction and prevents fastener loosening under vibration. Each washer is stamped from precision-rolled steel strip to consistent thickness tolerances, ensuring predictable bolt stretch and joint behavior across multiple fastening points. The zinc plating provides reliable corrosion protection for indoor use and sheltered outdoor applications. An indispensable consumable for any workshop, garage, or maintenance department handling regular fastener assembly and repair work.",
          "price": 3.55,
          "is_location_offer": false,
          "is_rental": false,
          "co2_rating": "C",
          "in_stock": true,
          "is_eco_friendly": false,
          "product_image": {
            "id": "01KWSQ0D9G129Q4Q5SGCCKY7VP",
            "by_name": "Robert Ruggiero",
            "by_url": "https://unsplash.com/@robert2301",
            "source_name": "Unsplash",
            "source_url": "https://unsplash.com/photos/a-pile-of-different-colored-washers-sitting-on-top-of-a-table-oY6774he6GQ",
            "file_name": "fasteners06.avif",
            "title": "Washers"
          },
          "category": {
            "id": "01KWSQ0D93MCWB5Z9GDEPGVJDM",
            "name": "Fasteners",
            "slug": "fasteners"
          },
          "brand": {
            "id": "01KWSQ0CYMA7FSXDT8HEQPNPH0",
            "name": "ForgeFlex Tools"
          }
        },
        {
          "id": "01KWSQ0DC9C3BZW0YZZ92WJSA0",
          "name": "Flat-Head Wood Screws",
          "description": "Pack of 75 countersink flat-head wood screws in 4x40mm size, crafted from yellow zinc-plated steel for enhanced moisture resistance in both interior and sheltered exterior woodworking applications. The 82-degree countersink flat head sits perfectly flush with the timber surface for a clean, professional finish that can be painted, stained, or filled invisibly. Deep single-lead threads are designed to bite aggressively into both hardwood and softwood fibers for superior holding power that resists pull-out under load and vibration. The sharp gimlet point self-starts without pre-drilling in most softwoods, while a pilot hole is recommended for hardwoods to prevent splitting near edges. The yellow zinc coating provides a warm color that blends naturally with light-colored timbers. Perfect for furniture assembly, deck building, cabinet construction, and general woodworking joinery where appearance matters.",
          "price": 3.95,
          "is_location_offer": false,
          "is_rental": false,
          "co2_rating": "C",
          "in_stock": true,
          "is_eco_friendly": false,
          "product_image": {
            "id": "01KWSQ0D9G129Q4Q5SGCCKY7VM",
            "by_name": "Ben Lodge",
            "by_url": "https://unsplash.com/@benlodge123",
            "source_name": "Unsplash",
            "source_url": "https://unsplash.com/photos/stainless-steel-11-screw-e3Y7qB67aow",
            "file_name": "fasteners04.avif",
            "title": "Flat-Head Wood Screws"
          },
          "category": {
            "id": "01KWSQ0D93MCWB5Z9GDEPGVJDM",
            "name": "Fasteners",
            "slug": "fasteners"
          },
          "brand": {
            "id": "01KWSQ0CYMA7FSXDT8HEQPNPH0",
            "name": "ForgeFlex Tools"
          }
        },
        {
          "id": "01KWSQ0DCBR2HXGYF2Z18JANN2",
          "name": "M4 Nuts",
          "description": "Box of 100 M4 hexagonal nuts manufactured from A2-grade austenitic stainless steel for excellent resistance to rust, tarnishing, and corrosion in demanding indoor and outdoor environments. The precisely machined internal threads ensure smooth, easy engagement with M4 bolts, machine screws, and threaded rod without cross-threading or binding. The standard DIN 934 hex profile is compatible with 7mm sockets, open-end spanners, and adjustable wrenches for convenient tightening with any common hand or power tool. Chamfered edges on both faces allow the nut to start on the bolt thread from either direction, saving time during repetitive assembly operations. Consistent dimensional accuracy across all 100 pieces means reliable torque values and clamping forces in every joint. Essential workshop consumables for assembly, prototyping, equipment repair, and maintenance projects across mechanical, electrical, and general engineering trades.",
          "price": 4.65,
          "is_location_offer": false,
          "is_rental": false,
          "co2_rating": "C",
          "in_stock": true,
          "is_eco_friendly": false,
          "product_image": {
            "id": "01KWSQ0D9G129Q4Q5SGCCKY7VN",
            "by_name": "Mika Baumeister",
            "by_url": "https://unsplash.com/@kommumikation",
            "source_name": "Unsplash",
            "source_url": "https://unsplash.com/photos/silver-and-black-round-coins-c71yQepDEjo",
            "file_name": "fasteners05.avif",
            "title": "M4 Nuts"
          },
          "category": {
            "id": "01KWSQ0D93MCWB5Z9GDEPGVJDM",
            "name": "Fasteners",
            "slug": "fasteners"
          },
          "brand": {
            "id": "01KWSQ0CYMA7FSXDT8HEQPNPH0",
            "name": "ForgeFlex Tools"
          }
        },
        {
          "id": "01KWSQ0DB7915H89KQXBE6CEHE",
          "name": "Phillips Screwdriver",
          "description": "Professional-quality Phillips screwdriver with a PH2 tip precision-machined from chrome vanadium steel and vapor-blasted for maximum grip inside cross-head screw recesses. The bi-component handle features a soft-grip comfort zone that absorbs torque reaction and vibration, combined with a hard polypropylene core that transmits maximum turning force to the blade. A hex bolster machined into the shaft just above the handle allows a wrench to be applied for additional turning leverage on stubborn or over-tightened screws. The round blade shaft is chrome-plated for corrosion resistance and easy cleaning after use in greasy or painted environments. A hanging hole in the handle allows convenient pegboard or hook storage for quick identification and access. Suitable for electricians, cabinet makers, assembly technicians, and anyone who needs a reliable, comfortable everyday screwdriver.",
          "price": 4.92,
          "is_location_offer": true,
          "is_rental": false,
          "co2_rating": "C",
          "in_stock": true,
          "is_eco_friendly": false,
          "product_image": {
            "id": "01KWSQ0D9G129Q4Q5SGCCKY7TR",
            "by_name": "Tekton",
            "by_url": "https://unsplash.com/@tekton_tools",
            "source_name": "Unsplash",
            "source_url": "https://unsplash.com/photos/jlY6nV_STIw",
            "file_name": "screwdriver01.avif",
            "title": "Phillips Screwdriver"
          },
          "category": {
            "id": "01KWSQ0D93MCWB5Z9GDEPGVJD8",
            "name": "Screwdriver",
            "slug": "screwdriver"
          },
          "brand": {
            "id": "01KWSQ0CYMA7FSXDT8HEQPNPH0",
            "name": "ForgeFlex Tools"
          }
        },
        {
          "id": "01KWSQ0DC6EM2FE0TNN3EHXK9S",
          "name": "Nuts and bolts",
          "description": "Comprehensive assorted set of 200 stainless steel nuts and bolts in popular metric sizes ranging from M3 to M10, providing a one-stop selection for repair, assembly, prototyping, and maintenance tasks across all trades. The 18-8 austenitic stainless steel composition delivers excellent corrosion resistance for both indoor and outdoor applications, including marine, food-processing, and chemical environments where carbon steel would quickly deteriorate. Hex bolt heads and matching hex nuts are manufactured to DIN standard tolerances for a precise, wobble-free thread engagement that inspires confidence in critical fastened joints. The set includes matching flat washers and spring washers for each size to ensure proper load distribution and vibration resistance. Supplied in a compartmentalized clear plastic case with labeled dividers for instant size identification and organized storage. An invaluable workshop consumable that eliminates trips to the hardware store for common fastener sizes.",
          "price": 5.55,
          "is_location_offer": false,
          "is_rental": false,
          "co2_rating": "C",
          "in_stock": true,
          "is_eco_friendly": false,
          "product_image": {
            "id": "01KWSQ0D9G129Q4Q5SGCCKY7VJ",
            "by_name": "Edge2Edge Media",
            "by_url": "https://unsplash.com/@edge2edgemedia",
            "source_name": "Unsplash",
            "source_url": "https://unsplash.com/photos/silver-and-black-metal-tools-qHhJkxare7A",
            "file_name": "fasteners02.avif",
            "title": "Nuts and bolts"
          },
          "category": {
            "id": "01KWSQ0D93MCWB5Z9GDEPGVJDM",
            "name": "Fasteners",
            "slug": "fasteners"
          },
          "brand": {
            "id": "01KWSQ0CYMA7FSXDT8HEQPNPH0",
            "name": "ForgeFlex Tools"
          }
        },
        {
          "id": "01KWSQ0DC45CYT732MD7K5RR67",
          "name": "Screws",
          "description": "Box of 100 general-purpose pan head machine screws in M5x30mm size, manufactured from zinc-plated mild steel for reliable corrosion resistance in indoor and sheltered outdoor applications. The Phillips drive recess is precisely formed to provide a secure, positive engagement with the screwdriver tip, significantly reducing the cam-out that damages both screws and tools. The pan head profile sits above the surface of the material, providing a clean, finished appearance and a bearing surface that distributes clamping force over a wider area than flat-head alternatives. Machine-threaded shanks ensure consistent, repeatable clamping force across all fastened joints and allow for easy removal and reinstallation during maintenance. Compatible with M5 hex nuts, nylon lock nuts, and threaded inserts. Suitable for joining sheet metal, machine assembly, wood-to-metal connections, and general workshop fabrication tasks.",
          "price": 6.25,
          "is_location_offer": false,
          "is_rental": false,
          "co2_rating": "C",
          "in_stock": true,
          "is_eco_friendly": false,
          "product_image": {
            "id": "01KWSQ0D9G129Q4Q5SGCCKY7VH",
            "by_name": "Eliza Diamond",
            "by_url": "https://unsplash.com/@eliza28diamonds",
            "source_name": "Unsplash",
            "source_url": "https://unsplash.com/photos/gray-screw-bolt-lot-pvm5QvjFrJ8",
            "file_name": "fasteners01.avif",
            "title": "Screws"
          },
          "category": {
            "id": "01KWSQ0D93MCWB5Z9GDEPGVJDM",
            "name": "Fasteners",
            "slug": "fasteners"
          },
          "brand": {
            "id": "01KWSQ0CYMA7FSXDT8HEQPNPH1",
            "name": "MightyCraft Hardware"
          }
        },
        {
          "id": "01KWSQ0DBG8FRAR3Z8SVYQ7YWX",
          "name": "Tape Measure 7.5m",
          "description": "Professional-grade 7.5-meter retractable tape measure built for daily use on construction sites, in workshops, and on renovation projects. The 25mm wide nylon-coated steel blade resists bending, kinking, and snapping at full extension, while the coating protects against abrasion and moisture that would corrode an unprotected blade. An impressive standout of over 3 meters allows solo measurements across door openings, window frames, and room widths without the blade folding. The heavy-duty rubber-armored housing absorbs drops from ladder height onto concrete floors, while the integrated belt clip and wrist lanyard keep the tape always within reach. A smooth, controllable retraction mechanism and positive blade lock hold your measurement securely in place. Dual metric and imperial markings printed in high-contrast colors ensure compatibility with any project specification and easy reading in all lighting conditions.",
          "price": 7.23,
          "is_location_offer": false,
          "is_rental": false,
          "co2_rating": "C",
          "in_stock": true,
          "is_eco_friendly": false,
          "product_image": {
            "id": "01KWSQ0D9G129Q4Q5SGCCKY7V8",
            "by_name": "Brett Jordan",
            "by_url": "https://unsplash.com/@brett_jordan",
            "source_name": "Unsplash",
            "source_url": "https://unsplash.com/photos/blue-and-yellow-measuring-tape-faOPbPmznfQ",
            "file_name": "measure01.avif",
            "title": "Tape Measure 7.5m"
          },
          "category": {
            "id": "01KWSQ0D93MCWB5Z9GDEPGVJDB",
            "name": "Measures",
            "slug": "measures"
          },
          "brand": {
            "id": "01KWSQ0CYMA7FSXDT8HEQPNPH0",
            "name": "ForgeFlex Tools"
          }
        },
        {
          "id": "01KWSQ0DC78YQGG9F3KEH1TT8N",
          "name": "Cross-head screws",
          "description": "Pack of 50 Phillips cross-head screws in M4x25mm size, manufactured from zinc-plated steel for dependable corrosion protection in indoor and semi-exposed environments. The cross-head drive pattern ensures efficient power transfer from both manual and powered screwdrivers, while the precisely formed recess depth minimizes cam-out and reduces the risk of damaging the screw head or work surface. A sharp, self-starting thread point eliminates the need for pre-drilling in softwood, MDF, and chipboard applications, speeding up assembly time considerably. The 25mm thread length provides strong pull-out resistance in materials 15mm thick and above. Ideal for fastening light-gauge metal brackets, cabinet hinges, electrical outlet boxes, and general hardware. Each screw is individually inspected to ensure consistent head formation and thread quality across the entire pack.",
          "price": 7.99,
          "is_location_offer": false,
          "is_rental": false,
          "co2_rating": "C",
          "in_stock": true,
          "is_eco_friendly": false,
          "product_image": {
            "id": "01KWSQ0D9G129Q4Q5SGCCKY7VK",
            "by_name": "Milad Fallah",
            "by_url": "https://unsplash.com/@miladfallah90",
            "source_name": "Unsplash",
            "source_url": "https://unsplash.com/photos/silver-screw-lot-on-brown-wooden-table-wwZYL4BYFto",
            "file_name": "fasteners03.avif",
            "title": "Cross-head screws"
          },
          "category": {
            "id": "01KWSQ0D93MCWB5Z9GDEPGVJDM",
            "name": "Fasteners",
            "slug": "fasteners"
          },
          "brand": {
            "id": "01KWSQ0CYMA7FSXDT8HEQPNPH0",
            "name": "ForgeFlex Tools"
          }
        },
        {
          "id": "01KWSQ0DAGZFKB680QZWKWEN68",
          "name": "Slip Joint Pliers",
          "description": "Adjustable slip joint pliers that feature a two-position pivot mechanism for switching between regular and wide jaw openings to accommodate different fastener sizes. The PVC-coated handles offer a comfortable, non-slip grip while the precisely machined jaws securely grasp round, flat, and hexagonal objects without slipping. Constructed from durable drop-forged carbon steel that has been heat-treated to withstand heavy daily use in professional environments. The curved jaw section grips pipes and cylindrical objects, while the flat front surface handles nuts, bolts, and sheet materials. A wire cutter integrated near the pivot handles light cutting tasks without reaching for a separate tool. Perfect for plumbing, automotive, HVAC, and general maintenance work where a single versatile gripping tool saves time.",
          "price": 9.17,
          "is_location_offer": false,
          "is_rental": false,
          "co2_rating": "D",
          "in_stock": true,
          "is_eco_friendly": false,
          "product_image": {
            "id": "01KWSQ0D9G129Q4Q5SGCCKY7TC",
            "by_name": "Yasin Hasan",
            "by_url": "https://unsplash.com/@yasin",
            "source_name": "Unsplash",
            "source_url": "https://unsplash.com/photos/dwlxTSpfKXg",
            "file_name": "pliers05.avif",
            "title": "Slip joint pliers"
          },
          "category": {
            "id": "01KWSQ0D93MCWB5Z9GDEPGVJD9",
            "name": "Pliers",
            "slug": "pliers"
          },
          "brand": {
            "id": "01KWSQ0CYMA7FSXDT8HEQPNPH1",
            "name": "MightyCraft Hardware"
          }
        }
      ],
      "from": 1,
      "last_page": 6,
      "per_page": 9,
      "to": 9,
      "total": 50
    }
  }
]